{
  "dependencies": {
    "mssql1": {
      "secretStore": "AzureAppSettings",
      "resourceId": "/subscriptions/[parameters('subscriptionId')]/resourceGroups/[parameters('resourceGroupName')]/providers/Microsoft.Sql/servers/webapplicationdbserver2021227002656/databases/WebAppDb",
      "type": "mssql.azure",
      "connectionId": "ConnectionStrings:DefaultConnection"
    }
  }
}